<svg width="38" height="38" viewBox="0 0 38 38" fill="none" xmlns="http://www.w3.org/2000/svg">
<path fill-rule="evenodd" clip-rule="evenodd" d="M19 9.5C24.225 9.5 28.5 13.775 28.5 19C28.5 23.75 25.0562 27.7875 20.3062 28.5V21.7312H22.5625L23.0375 19H20.425V17.2188C20.425 16.5062 20.7812 15.7937 21.9688 15.7937H23.1562V13.4187C23.1562 13.4187 22.0875 13.1813 21.0188 13.1813C18.8813 13.1813 17.4562 14.4875 17.4562 16.8625V19H15.0813V21.7312H17.4562V28.3813C12.9437 27.6687 9.5 23.75 9.5 19C9.5 13.775 13.775 9.5 19 9.5Z" fill="white"/>
</svg>
