<svg width="38" height="38" viewBox="0 0 38 38" fill="none" xmlns="http://www.w3.org/2000/svg">
<path fill-rule="evenodd" clip-rule="evenodd" d="M27.6168 20.9286C27.3522 22.296 25.247 23.7925 22.8291 24.0825C21.5683 24.2336 20.3269 24.3725 19.0032 24.3115C16.8384 24.2119 15.1302 23.7925 15.1302 23.7925C15.1302 24.0042 15.1432 24.2057 15.1692 24.3942C15.4507 26.5404 17.2877 26.6689 19.0278 26.7289C20.7841 26.7892 22.348 26.2939 22.348 26.2939L22.4201 27.8889C22.4201 27.8889 21.1916 28.5515 19.0032 28.6734C17.7965 28.74 16.2981 28.6429 14.5529 28.1789C10.7679 27.1725 10.1169 23.1196 10.0173 19.0072C9.99503 18.1095 9.99924 17.2494 10.003 16.4742C10.0044 16.1951 10.0057 15.9269 10.0057 15.672C10.0057 11.4668 12.7485 10.2343 12.7485 10.2343C14.1314 9.59624 16.5045 9.32794 18.9715 9.30768H19.0321C21.4992 9.32794 23.8738 9.59624 25.2567 10.2343C25.2567 10.2343 27.9993 11.4668 27.9993 15.672C27.9993 15.672 28.0337 18.7745 27.6168 20.9286ZM24.7641 15.9982V21.0899H22.756V16.1478C22.756 15.1061 22.3197 14.5773 21.4469 14.5773C20.4818 14.5773 19.9982 15.2046 19.9982 16.4449V19.1499H18.0019V16.4449C18.0019 15.2046 17.5181 14.5773 16.5531 14.5773C15.6803 14.5773 15.244 15.1061 15.244 16.1478V21.0899H13.2358V15.9982C13.2358 14.9576 13.4996 14.1306 14.0294 13.5188C14.5758 12.907 15.2913 12.5934 16.1795 12.5934C17.2071 12.5934 17.9853 12.9901 18.4998 13.7838L19 14.6261L19.5003 13.7838C20.0147 12.9901 20.7929 12.5934 21.8206 12.5934C22.7087 12.5934 23.4242 12.907 23.9707 13.5188C24.5004 14.1306 24.7641 14.9576 24.7641 15.9982Z" fill="white"/>
</svg>
